e;y1;y2;h;t;
0;2.0;2.0;1.0E-7;0.0;
5.476189343259616E-9;2.0000001333333124;1.99999998;2.0E-7;1.0E-7;
1.0952373468471014E-8;2.000000399999811;1.99999994;4.0E-7;3.0E-7;
2.1904725890285548E-8;2.0000009333323043;1.99999986;8.0E-7;7.0E-7;
4.380936781598978E-8;2.000001999995275;1.9999997;1.6E-6;1.5E-6;
8.7618399615051E-8;2.0000041333131526;1.99999938;3.2E-6;3.1E-6;
1.7523545524168934E-7;2.0000083999166516;1.9999987399999999;6.4E-6;6.3E-6;
3.5046553456144884E-7;2.0000169329946265;1.99999746;1.28E-5;1.27E-5;
7.009095655779214E-7;2.0000339986344904;1.9999949;2.56E-5;2.55E-5;
1.401733118942618E-6;2.000068127849915;1.99998978;5.12E-5;5.1099999999999995E-5;
2.8031222042899732E-6;2.0001363780238712;1.99997954;1.024E-4;1.0229999999999999E-4;
5.6048683959110595E-6;2.000272845346795;1.99995906;2.048E-4;2.047E-4;
1.1204233716445775E-5;2.000545647913349;1.9999181;4.096E-4;4.095E-4;
2.2386462946864605E-5;2.001090724894835;1.99983618;8.192E-4;8.190999999999999E-4;
4.468497069482729E-5;2.0021787675799607;1.99967234;0.0016384;0.0016382999999999999;
8.901862605441886E-5;2.004346418535207;1.99934466;0.0032768;0.0032766999999999996;
1.766360898154565E-4;2.0086480694210764;1.9986893;0.0032768;0.006553499999999999;
1.7504147464551613E-4;2.0129050202243017;1.9980339399999998;0.0032768;0.0098303;
1.734542577928996E-4;2.0171174768605082;1.9973785799999997;0.0032768;0.0131071;
1.7187461210264678E-4;2.021285650121216;1.9967232199999996;0.0032768;0.0163839;
1.7030270534519016E-4;2.025409755531022;1.9960678599999995;0.0032768;0.0196607;
1.6873870022847206E-4;2.0294900132057574;1.9954124999999994;0.0032768;0.0229375;
1.6718275441310722E-4;2.033526647711054;1.9947571399999993;0.0032768;0.0262143;
1.6563502053119311E-4;2.037519887921405;1.9941017799999992;0.0032768;0.0294911;
1.6409564620772126E-4;2.0414699668798146;1.993446419999999;0.0032768;0.0327679;
1.6256477408554165E-4;2.045377121658114;1.992791059999999;0.0032768;0.0360447;
1.6104254185289602E-4;2.0492415932180372;1.9921356999999988;0.0032768;0.039321499999999995;
1.5952908227399667E-4;2.0530636262731288;1.9914803399999987;0.0032768;0.04259829999999999;
1.580245232221746E-4;2.056843469151562;1.9908249799999986;0.0032768;0.04587509999999999;
1.5652898771581887E-4;2.0605813736599443;1.9901696199999985;0.0032768;0.049151899999999984;
1.5504259395679058E-4;2.0642775949481815;1.9895142599999984;0.0032768;0.05242869999999998;
1.535654553710884E-4;2.0679323913754666;1.9888588999999983;0.0032768;0.05570549999999998;
1.5209768065208414E-4;2.071546024377456;1.9882035399999982;0.0032768;0.058982299999999974;
1.5063937380581965E-4;2.075118758334706;1.987548179999998;0.0032768;0.06225909999999997;
1.491906341984293E-4;2.0786508604424196;1.986892819999998;0.0032768;0.06553589999999997;
1.4775155660556077E-4;2.082142600581563;1.986237459999998;0.0032768;0.06881269999999996;
1.463222312638576E-4;2.085594251191409;1.9855820999999978;0.0032768;0.07208949999999996;
1.4490274392390097E-4;2.0890060871435563;1.9849267399999977;0.0032768;0.07536629999999996;
1.4349317590530867E-4;2.0923783856174705;1.9842713799999976;0.0032768;0.07864309999999995;
1.420936041530707E-4;2.095711425977601;1.9836160199999975;0.0032768;0.08191989999999995;
1.4070410129550317E-4;2.099005489652102;1.9829606599999974;0.0032768;0.08519669999999994;
1.393247357038195E-4;2.102260860013217;1.9823052999999973;0.0032768;0.08847349999999994;
1.3795557155265356E-4;2.105477822259348;1.9816499399999972;0.0032768;0.09175029999999994;
1.3659666888216862E-4;2.108656663298855;1.980994579999997;0.0032768;0.09502709999999993;
1.352480836610865E-4;2.1117976716356077;1.980339219999997;0.0032768;0.09830389999999993;
1.3390986785082645E-4;2.1149011372563358;1.9796838599999969;0.0032768;0.10158069999999993;
1.3258206947056435E-4;2.1179673515197863;1.9790284999999967;0.0032768;0.10485749999999992;
1.31264732663307E-4;2.1209966070477284;1.9783731399999966;0.0032768;0.10813429999999992;
1.2995789776263207E-4;2.123989197617818;1.9777177799999965;0.0032768;0.11141109999999992;
1.2866160136012654E-4;2.126945418058352;1.9770624199999964;0.0032768;0.11468789999999991;
1.2737587637345893E-4;2.12986556414492;1.9764070599999963;0.0032768;0.11796469999999991;
1.2610075211514995E-4;2.1327499324989767;1.9757516999999962;0.0032768;0.1212414999999999;
1.248362543616282E-4;2.1355988204883487;1.9750963399999961;0.0032768;0.1245182999999999;
1.235824054227936E-4;2.1384125261296836;1.974440979999996;0.0032768;0.1277950999999999;
1.2233922421180297E-4;2.141191347992852;1.973785619999996;0.0032768;0.1310718999999999;
1.2110672631533108E-4;2.1439355851073127;1.9731302599999958;0.0032768;0.1343486999999999;
1.1988492406376863E-4;2.146645536870448;1.9724748999999957;0.0032768;0.1376254999999999;
1.1867382660167371E-4;2.1493215029578643;1.9718195399999956;0.0032768;0.1409022999999999;
1.1747343995831867E-4;2.151963783235672;1.9711641799999955;0.0032768;0.1441790999999999;
1.1628376711814159E-4;2.1545726776747354;1.9705088199999954;0.0032768;0.1474558999999999;
1.1510480809129309E-4;2.1571484862669;1.9698534599999953;0.0032768;0.1507326999999999;
1.1393655998380239E-4;2.1596915089431867;1.9691980999999952;0.0032768;0.15400949999999988;
1.1277901706783857E-4;2.1622020454939506;1.968542739999995;0.0032768;0.15728629999999988;
1.1163217085168637E-4;2.164680395491005;1.967887379999995;0.0032768;0.16056309999999988;
1.1049601014930957E-4;2.167126858211691;1.9672320199999949;0.0032768;0.16383989999999987;
1.0937052114978751E-4;2.169541732564899;1.9665766599999948;0.0032768;0.16711669999999987;
1.0825568748621237E-4;2.1719253170190163;1.9659212999999947;0.0032768;0.17039349999999986;
1.0715149030430091E-4;2.1742779095318023;1.9652659399999945;0.0032768;0.17367029999999986;
1.060579083305305E-4;2.1765998074821744;1.9646105799999944;0.0032768;0.17694709999999986;
1.0497491793970415E-4;2.178891307603888;1.9639552199999943;0.0032768;0.18022389999999985;
1.0390249322203957E-4;2.181152705921099;1.9632998599999942;0.0032768;0.18350069999999985;
1.0284060604978265E-4;2.1833842976857976;1.9626444999999941;0.0032768;0.18677749999999985;
1.0178922614299615E-4;2.1855863773170845;1.961989139999994;0.0032768;0.19005429999999984;
1.0074832113484065E-4;2.1877592383422857;1.961333779999994;0.0032768;0.19333109999999984;
9.971785663638004E-5;2.189903173339877;1.9606784199999938;0.0065536;0.19660789999999984;
1.9587975765939753E-4;2.194105430472757;1.9593676999999938;0.0065536;0.20316149999999983;
1.9189255691113135E-4;2.198195468347799;1.9580569799999936;0.0065536;0.20971509999999982;
1.8798736432525307E-4;2.2021755880043212;1.9567462599999934;0.0065536;0.2162686999999998;
1.841634505349735E-4;2.206048070444089;1.9554355399999932;0.0065536;0.2228222999999998;
1.8042003665847645E-4;2.2098151752002666;1.954124819999993;0.0065536;0.2293758999999998;
1.767562979666515E-4;2.2134791390282125;1.9528140999999928;0.0065536;0.2359294999999998;
1.731713674370131E-4;2.2170421746965925;1.9515033799999926;0.0065536;0.24248309999999978;
1.696643391916489E-4;2.220506469875564;1.9501926599999924;0.0065536;0.24903669999999978;
1.6623427181612041E-4;2.223874186118734;1.9488819399999922;0.0065536;0.25559029999999977;
1.6288019155861835E-4;2.2271474579355273;1.947571219999992;0.0065536;0.26214389999999976;
1.596010954075958E-4;2.2303283919505823;1.9462604999999917;0.0065536;0.26869749999999976;
1.5639595404762626E-4;2.2334190661467694;1.9449497799999915;0.0065536;0.27525109999999975;
1.5326371469396146E-4;2.236421529188415;1.9436390599999913;0.0065536;0.28180469999999974;
1.5020330380509175E-4;2.239337799821341;1.942328339999991;0.0065536;0.28835829999999973;
1.4721362967549747E-4;2.2421698663463294;1.941017619999991;0.0065536;0.2949118999999997;
1.442935849085915E-4;2.244919686162671;1.9397068999999907;0.0065536;0.3014654999999997;
1.414420487720098E-4;2.247589185378482;1.9383961799999905;0.0065536;0.3080190999999997;
1.3865788943708983E-4;2.250180258484531;1.9370854599999903;0.0065536;0.3145726999999997;
1.3593996610424978E-4;2.2526947680883733;1.93577473999999;0.0065536;0.3211262999999997;
1.3328713101671115E-4;2.255134544705648;1.9344640199999898;0.0065536;0.3276798999999997;
1.3069823136529254E-4;2.257501386605464;1.9331532999999896;0.0065536;0.3342334999999997;
1.2817211108665357E-4;2.259797059706882;1.9318425799999894;0.0065536;0.3407870999999997;
1.2570761255790787E-4;2.2620232975235597;1.9305318599999892;0.0065536;0.34734069999999967;
1.2330357819052243E-4;2.2641818011537342;1.929221139999989;0.0065536;0.35389429999999966;
1.2095885192661296E-4;2.2662742393127724;1.9279104199999888;0.0065536;0.36044789999999965;
1.1867228064058441E-4;2.268302248405627;1.9265996999999886;0.0065536;0.36700149999999965;
1.1644271544963836E-4;2.270267432636616;1.9252889799999884;0.0065536;0.37355509999999964;
1.1426901293574789E-4;2.2721713641540373;1.9239782599999882;0.0065536;0.38010869999999963;
1.1215003628293831E-4;2.274015583227211;1.922667539999988;0.0065536;0.3866622999999996;
1.1008465633288722E-4;2.2758015984536395;1.9213568199999878;0.0065536;0.3932158999999996;
1.080717525619525E-4;2.2775308869940805;1.9200460999999875;0.0065536;0.3997694999999996;
1.0611021398295887E-4;2.2792048948333803;1.9187353799999873;0.0065536;0.4063230999999996;
1.0419893997516892E-4;2.2808250370650485;1.9174246599999871;0.0065536;0.4128766999999996;
1.0233684104500793E-4;2.282392698197612;1.916113939999987;0.0065536;0.4194302999999996;
1.0052283952141243E-4;2.2839092324808887;1.9148032199999867;0.0065536;0.4259838999999996;
9.875587018808625E-5;2.285375964250405;1.9134924999999865;0.0131072;0.4325374999999996;
1.9155013587872957E-4;2.28816516990234;1.9108710599999865;0.0131072;0.44564469999999956;
1.850642648432472E-4;2.290770326214846;1.9082496199999865;0.0131072;0.45875189999999955;
1.789156956675729E-4;2.2932009892431067;1.9056281799999866;0.0131072;0.47185909999999953;
1.7308880559823478E-4;2.2954662745049395;1.9030067399999866;0.0131072;0.4849662999999995;
1.6756846875037076E-4;2.2975748704902275;1.9003852999999866;0.0131072;0.4980734999999995;
1.6234006805683688E-4;2.299535052832383;1.8977638599999866;0.0131072;0.5111806999999995;
1.5738950280383017E-4;2.3013546987207367;1.8951424199999867;0.0131072;0.5242878999999995;
1.5270319229281667E-4;2.303041301441656;1.8925209799999867;0.0131072;0.5373950999999995;
1.482680761230672E-4;2.304601984950412;1.8898995399999867;0.0131072;0.5505022999999994;
1.4407161154945353E-4;2.306043518388776;1.8872780999999867;0.0131072;0.5636094999999994;
1.4010176832796834E-4;2.3073723304751885;1.8846566599999868;0.0131072;0.5767166999999994;
1.363470214241293E-4;2.3085945237050964;1.8820352199999868;0.0131072;0.5898238999999994;
1.32796341921902E-4;2.3097158883087827;1.8794137799999868;0.0131072;0.6029310999999994;
1.2943918643715246E-4;2.310741915922733;1.8767923399999868;0.0131072;0.6160382999999994;
1.2626548530715796E-4;2.311677812938429;1.8741708999999869;0.0131072;0.6291454999999994;
1.2326562979833193E-4;2.3125285134994327;1.871549459999987;0.0131072;0.6422526999999993;
1.2043045854640397E-4;2.313298692123815;1.868928019999987;0.0131072;0.6553598999999993;
1.1775124341823723E-4;2.313992775934454;1.866306579999987;0.0131072;0.6684670999999993;
1.1521967496162601E-4;2.314614956484541;1.863685139999987;0.0131072;0.6815742999999993;
1.1282784758781528E-4;2.3151692011698306;1.861063699999987;0.0131072;0.6946814999999993;
1.1056824461292653E-4;2.315659264222832;1.858442259999987;0.0131072;0.7077886999999993;
1.084337232669335E-4;2.3160886972873076;1.855820819999987;0.0131072;0.7208958999999993;
1.064174997632561E-4;2.316460859574139;1.853199379999987;0.0131072;0.7340030999999992;
1.0451313450852786E-4;2.3167789276019644;1.850577939999987;0.0131072;0.7471102999999992;
1.0271451751899174E-4;2.3170459045279155;1.8479564999999871;0.0131072;0.7602174999999992;
1.0101585409957474E-4;2.317264629075447;1.8453350599999871;0.0131072;0.7733246999999992;
9.941165083122388E-5;2.317437784067579;1.8427136199999872;0.0262144;0.7864318999999992;
1.936372184219794E-4;2.3176573835569414;1.8374707399999872;0.0262144;0.8126462999999992;
1.8830745265052684E-4;2.3177233523077008;1.8322278599999873;0.0262144;0.8388606999999991;
1.9093665318061146E-4;2.317652322053669;1.8269849799999873;0.0262144;0.8650750999999991;
1.9517478429054158E-4;2.31745912573553;1.8217420999999874;0.0262144;0.8912894999999991;
1.9895431224495729E-4;2.317156984885259;1.8164992199999874;0.0262144;0.917503899999999;
2.0232523348386242E-4;2.3167576806026475;1.8112563399999875;0.0262144;0.943718299999999;
2.0533219626964593E-4;2.3162717073992822;1.8060134599999875;0.0262144;0.969932699999999;
2.0801504674865842E-4;2.3157084113909048;1.8007705799999876;0.0262144;0.996147099999999;
2.1040932540456709E-4;2.3150761142469345;1.7955276999999876;0.0262144;1.022361499999999;
2.1254671696500717E-4;2.3143822242223395;1.7902848199999877;0.0262144;1.048575899999999;
2.144554570060147E-4;2.3136333355072356;1.7850419399999877;0.0262144;1.074790299999999;
2.1616069855315677E-4;2.312835317037391;1.7797990599999878;0.0262144;1.101004699999999;
2.1768484194100476E-4;2.3119933918171105;1.7745561799999878;0.0262144;1.127219099999999;
2.1904783109083503E-4;2.3111122077166835;1.7693132999999879;0.0262144;1.153433499999999;
2.2026741921871945E-4;2.310195900621147;1.764070419999988;0.0262144;1.1796478999999989;
2.213594068141462E-4;2.3092481507263427;1.758827539999988;0.0262144;1.2058622999999988;
2.2233785453886135E-4;2.3082722327027185;1.753584659999988;0.0262144;1.2320766999999988;
2.2321527350028475E-4;2.307271060377214;1.748341779999988;0.0262144;1.2582910999999988;
2.240027951584876E-4;2.3062472265189755;1.7430988999999881;0.0262144;1.2845054999999987;
2.2471032293364907E-4;2.305203038255412;1.7378560199999882;0.0262144;1.3107198999999987;
2.2534666739918281E-4;2.3041405485910906;1.7326131399999882;0.0262144;1.3369342999999987;
2.2591966677056242E-4;2.3030615844528595;1.7273702599999883;0.0262144;1.3631486999999987;
2.2643629423930406E-4;2.3019677716401103;1.7221273799999883;0.0262144;1.3893630999999986;
2.2690275354914874E-4;2.3008605570189227;1.7168844999999884;0.0262144;1.4155774999999986;
2.2732456407359436E-4;2.2997412282626346;1.7116416199999884;0.0262144;1.4417918999999986;
2.27706636526191E-4;2.2986109314088288;1.7063987399999885;0.0262144;1.4680062999999985;
2.280533403185966E-4;2.297470686473507;1.7011558599999885;0.0262144;1.4942206999999985;
2.2836856347576074E-4;2.2963214013370417;1.6959129799999886;0.0262144;1.5204350999999985;
2.2865576592215727E-4;2.295163884093062;1.6906700999999886;0.0262144;1.5466494999999985;
2.2891802686616662E-4;2.2939988540304577;1.6854272199999887;0.0262144;1.5728638999999984;
2.2915808693208767E-4;2.2928269513999995;1.6801843399999887;0.0262144;1.5990782999999984;
2.2937838561909452E-4;2.291648746100347;1.6749414599999888;0.0262144;1.6252926999999984;
2.2958109460402554E-4;2.2904647454033453;1.6696985799999888;0.0262144;1.6515070999999983;
2.2976814734751043E-4;2.289275400825225;1.6644556999999889;0.0262144;1.6777214999999983;
2.2994126541434464E-4;2.288081114238515;1.659212819999989;0.0262144;1.7039358999999983;
2.3010198187175694E-4;2.2868822433089466;1.653969939999989;0.0262144;1.7301502999999983;
2.3025166209130913E-4;2.285679106332262;1.648727059999989;0.0262144;1.7563646999999982;
2.3039152224238864E-4;2.284471986537532;1.643484179999989;0.0262144;1.7825790999999982;
2.3052264573435774E-4;2.283261135916145;1.6382412999999891;0.0262144;1.8087934999999982;
2.3064599783577985E-4;2.2820467786290832;1.6329984199999892;0.0262144;1.8350078999999981;
2.307624386733233E-4;2.2808291140392165;1.6277555399999892;0.0262144;1.861222299999998;
2.3087273479080066E-4;2.279608319410164;1.6225126599999893;0.0262144;1.887436699999998;
2.309775694288823E-4;2.2783845523086312;1.6172697799999893;0.0262144;1.913651099999998;
2.310775516672438E-4;2.2771579527430377;1.6120268999999894;0.0262144;1.939865499999998;
2.311732245562835E-4;2.275928645067592;1.6067840199999894;0.0262144;1.966079899999998;
2.312650723505743E-4;2.2746967396777356;1.6015411399999895;0.0262144;1.992294299999998;
2.3135352694352615E-4;2.2734623345199707;1.5962982599999895;0.0262144;2.018508699999998;
2.314389735928695E-4;2.2722255164365786;1.5910553799999896;0.0262144;2.0447230999999984;
2.3152175601464417E-4;2.270986362363398;1.5858124999999896;0.0262144;2.0709374999999985;
2.3160218091674726E-4;2.2697449403968686;1.5805696199999897;0.0262144;2.0971518999999987;
2.3168052203338874E-4;2.268501310744706;1.5753267399999897;0.0262144;2.123366299999999;
2.3175702371650405E-4;2.2672555265730234;1.5700838599999898;0.0262144;2.149580699999999;
2.318319041324354E-4;2.266007634761248;1.5648409799999898;0.0262144;2.1757950999999993;
2.319053581081944E-4;2.264757676574971;1.5595980999999899;0.0262144;2.2020094999999995;
2.319775596657208E-4;2.263505688265715;1.55435521999999;0.0262144;2.2282238999999997;
2.320486642785851E-4;2.2622517016056265;1.54911233999999;0.0262144;2.2544383;
2.3211881088196814E-4;2.2609957443642146;1.54386945999999;0.0262144;2.2806527;
2.3218812366300668E-4;2.2597378407334654;1.53862657999999;0.0262144;2.3068671000000003;
2.3225671365561292E-4;2.2584780117069756;1.5333836999999901;0.0262144;2.3330815000000005;
2.3232468016156006E-4;2.257216275418113;1.5281408199999902;0.0262144;2.3592959000000007;
2.3239211201651701E-4;2.2559526474416725;1.5228979399999902;0.0262144;2.385510300000001;
2.3245908871854278E-4;2.2546871410630014;1.5176550599999903;0.0262144;2.411724700000001;
2.325256814338531E-4;2.253419767518132;1.5124121799999903;0.0262144;2.4379391000000012;
2.32591953893405E-4;2.2521505362080627;1.5071692999999904;0.0262144;2.4641535000000014;
2.3265796319200355E-4;2.2508794548900015;1.5019264199999904;0.0262144;2.4903679000000016;
2.327237605012554E-4;2.249606529848069;1.4966835399999905;0.0262144;2.516582300000002;
2.3278939170483833E-4;2.248331766045674;1.4914406599999905;0.0262144;2.542796700000002;
2.3285489796560327E-4;2.247055167261556;1.4861977799999906;0.0262144;2.569011100000002;
2.3292031623110634E-4;2.2457767362112526;1.4809548999999906;0.0262144;2.5952255000000024;
2.3298567968458146E-4;2.2444964746555627;1.4757120199999907;0.0262144;2.6214399000000026;
2.3305101814763418E-4;2.243214383497416;1.4704691399999907;0.0262144;2.647654300000003;
2.3311635843922422E-4;2.241930462868384;1.4652262599999908;0.0262144;2.673868700000003;
2.331817246963297E-4;2.2406447122059605;1.4599833799999908;0.0262144;2.700083100000003;
2.3324713865997232E-4;2.23935713032259;1.4547404999999909;0.0262144;2.7262975000000034;
2.333126199307589E-4;2.23806771546734;1.449497619999991;0.0262144;2.7525119000000036;
2.3337818619682617E-4;2.236776465380998;1.444254739999991;0.0262144;2.7787263000000038;
2.3344385343767752E-4;2.235483377345304;1.439011859999991;0.0262144;2.804940700000004;
2.335096361058791E-4;2.2341884482269356;1.433768979999991;0.0262144;2.831155100000004;
2.3357554728972322E-4;2.232891674516819;1.4285260999999911;0.0262144;2.8573695000000043;
2.3364159885822363E-4;2.231593052365251;1.4232832199999912;0.0262144;2.8835839000000045;
2.3370780159091633E-4;2.230292577613291;1.4180403399999912;0.0262144;2.9097983000000047;
2.337741652936717E-4;2.2289902458208086;1.4127974599999913;0.0262144;2.936012700000005;
2.3384069890238938E-4;2.2276860522915514;1.4075545799999913;0.0262144;2.962227100000005;
2.3390741057546398E-4;2.2263799920955405;1.4023116999999914;0.0262144;2.9884415000000053;
2.339743077766711E-4;2.2250720600890865;1.3970688199999914;0.0262144;3.0146559000000055;
